Suite/Test/Step Name,Browser,Description,Tag,Start time,End time,Duration,Status
Sprint_16,Chrome 85.0.4183.102,,,2020-09-17 18:17:10,2020-09-17 18:18:21,1m - 11.133s,PASSED
,,,,,,,
Test Cases/Scenario/_SCRUM/Sprint_16/S16_019 - Upload Document Outstanding - Max Size - Invalid,Chrome 85.0.4183.102,,,2020-09-17 18:17:10,2020-09-17 18:18:21,1m - 10.482s,PASSED
"GetOutstanding = UI.getOneColumnDatabase(""172.16.94.70"", ""SEA"", GMA_QueyGetOutstandingData, ""NamaPeserta"")",Chrome 85.0.4183.102,,,2020-09-17 18:17:11,2020-09-17 18:17:17,6.168s,PASSED
random = Random().nextInt(length),Chrome 85.0.4183.102,,,2020-09-17 18:17:17,2020-09-17 18:17:17,0.040s,PASSED
Outstanding = GetOutstanding[random].toString(),Chrome 85.0.4183.102,,,2020-09-17 18:17:17,2020-09-17 18:17:17,0.003s,PASSED
println(Outstanding),Chrome 85.0.4183.102,,,2020-09-17 18:17:17,2020-09-17 18:17:17,0.023s,PASSED
"picturename = ""gambar15mb.jpg""",Chrome 85.0.4183.102,,,2020-09-17 18:17:17,2020-09-17 18:17:17,0.007s,PASSED
"callTestCase(findTestCase(""Test Cases/Page/GMA/UpDocCLaim/SearchPage""), [""param"":""outstanding"", ""param2"":""membername"", ""membername"":Outstanding], STOP_ON_FAILURE)",Chrome 85.0.4183.102,,,2020-09-17 18:17:17,2020-09-17 18:17:52,34.698s,PASSED
delay(3),Chrome 85.0.4183.102,,,2020-09-17 18:17:52,2020-09-17 18:17:55,3.003s,PASSED
"callTestCase(findTestCase(""Test Cases/Scenario/GMA/UpDocClaim/ClosePopUpSearchAction""), ["""":""""], STOP_ON_FAILURE)",Chrome 85.0.4183.102,,,2020-09-17 18:17:55,2020-09-17 18:18:01,6.501s,PASSED
"callTestCase(findTestCase(""Page/GMA/UpDocCLaim/UploadDocOutstandingPage""), [""membername"":Outstanding, ""picturename"":picturename], STOP_ON_FAILURE)",Chrome 85.0.4183.102,,,2020-09-17 18:18:01,2020-09-17 18:18:20,18.184s,PASSED
closeBrowser(),Chrome 85.0.4183.102,,,2020-09-17 18:18:20,2020-09-17 18:18:21,1.096s,PASSED
