Suite/Test/Step Name,Browser,Description,Tag,Start time,End time,Duration,Status
Sprint_16,Chrome 85.0.4183.102,,,2020-09-17 06:47:21,2020-09-17 06:51:07,3m - 45.936s,PASSED
,,,,,,,
Test Cases/Scenario/_SCRUM/Sprint_16/S16_007 - Download Excel Data - Search By InvoiceNo - Invalid,Chrome 85.0.4183.102,,,2020-09-17 06:47:22,2020-09-17 06:48:12,49.699s,PASSED
"GetInvoiceNo = UI.getOneColumnDatabase(""172.16.94.70"", ""SEA"", GMA_QueryGetInvoiceData, ""InvoiceNo"")",Chrome 85.0.4183.102,,,2020-09-17 06:47:23,2020-09-17 06:47:28,5.178s,PASSED
random = Random().nextInt(length),Chrome 85.0.4183.102,,,2020-09-17 06:47:28,2020-09-17 06:47:28,0.036s,PASSED
InvoiceNo = GetInvoiceNo[random].toString(),Chrome 85.0.4183.102,,,2020-09-17 06:47:28,2020-09-17 06:47:28,0.003s,PASSED
println(InvoiceNo),Chrome 85.0.4183.102,,,2020-09-17 06:47:28,2020-09-17 06:47:28,0.007s,PASSED
"callTestCase(findTestCase(""Test Cases/Page/GMA/ClaimPayMon/SearchPayMonPage""), [""param"":""invoiceno"", ""param2"":""Invalid"", ""param3"":""""], STOP_ON_FAILURE)",Chrome 85.0.4183.102,,,2020-09-17 06:47:28,2020-09-17 06:47:58,29.966s,PASSED
"callTestCase(findTestCase(""Test Cases/Page/GMA/ClaimPayMon/DownloadExcel""), ["""":""""], STOP_ON_FAILURE)",Chrome 85.0.4183.102,,,2020-09-17 06:47:58,2020-09-17 06:48:01,3.055s,PASSED
delay(5),Chrome 85.0.4183.102,,,2020-09-17 06:48:01,2020-09-17 06:48:06,5.015s,PASSED
"callTestCase(findTestCase(""Test Cases/Scenario/GMA/ClaimPayMon/ClosePopUpSearchAction""), ["""":""""], STOP_ON_FAILURE)",Chrome 85.0.4183.102,,,2020-09-17 06:48:06,2020-09-17 06:48:11,4.594s,PASSED
closeBrowser(),Chrome 85.0.4183.102,,,2020-09-17 06:48:11,2020-09-17 06:48:12,1.006s,PASSED
,,,,,,,
Test Cases/Scenario/_SCRUM/Sprint_16/S16_008 - Download Excel Data - Search By PasienName - Invalid,Chrome 85.0.4183.102,,,2020-09-17 06:48:12,2020-09-17 06:48:46,34.195s,PASSED
"GetMemberName = UI.getOneColumnDatabase(""172.16.94.70"", ""SEA"", GMA_QueryGetInvoiceData, ""MemberName"")",Chrome 85.0.4183.102,,,2020-09-17 06:48:12,2020-09-17 06:48:13,0.476s,PASSED
random = Random().nextInt(length),Chrome 85.0.4183.102,,,2020-09-17 06:48:13,2020-09-17 06:48:13,0.000s,PASSED
MemberName = GetMemberName[random].toString(),Chrome 85.0.4183.102,,,2020-09-17 06:48:13,2020-09-17 06:48:13,0.005s,PASSED
println(MemberName),Chrome 85.0.4183.102,,,2020-09-17 06:48:13,2020-09-17 06:48:13,0.002s,PASSED
"callTestCase(findTestCase(""Test Cases/Page/GMA/ClaimPayMon/SearchPayMonPage""), [""param"":""pasienname"", ""param2"":""Invalid"", ""param3"":""""], STOP_ON_FAILURE)",Chrome 85.0.4183.102,,,2020-09-17 06:48:13,2020-09-17 06:48:34,20.821s,PASSED
"callTestCase(findTestCase(""Test Cases/Page/GMA/ClaimPayMon/DownloadExcel""), ["""":""""], STOP_ON_FAILURE)",Chrome 85.0.4183.102,,,2020-09-17 06:48:34,2020-09-17 06:48:36,2.170s,PASSED
delay(5),Chrome 85.0.4183.102,,,2020-09-17 06:48:36,2020-09-17 06:48:41,5.006s,PASSED
"callTestCase(findTestCase(""Test Cases/Scenario/GMA/ClaimPayMon/ClosePopUpSearchAction""), ["""":""""], STOP_ON_FAILURE)",Chrome 85.0.4183.102,,,2020-09-17 06:48:41,2020-09-17 06:48:45,4.113s,PASSED
closeBrowser(),Chrome 85.0.4183.102,,,2020-09-17 06:48:45,2020-09-17 06:48:46,1.171s,PASSED
,,,,,,,
Test Cases/Scenario/_SCRUM/Sprint_16/S16_009 - Download Excel Data - Search By Date - Invalid,Chrome 85.0.4183.102,,,2020-09-17 06:48:46,2020-09-17 06:49:21,35.349s,PASSED
"GetMemberName = UI.getOneColumnDatabase(""172.16.94.70"", ""SEA"", GMA_QueryGetInvoiceData, ""MemberName"")",Chrome 85.0.4183.102,,,2020-09-17 06:48:46,2020-09-17 06:48:47,0.405s,PASSED
random = Random().nextInt(length),Chrome 85.0.4183.102,,,2020-09-17 06:48:47,2020-09-17 06:48:47,0.000s,PASSED
MemberName = GetMemberName[random].toString(),Chrome 85.0.4183.102,,,2020-09-17 06:48:47,2020-09-17 06:48:47,0.000s,PASSED
println(MemberName),Chrome 85.0.4183.102,,,2020-09-17 06:48:47,2020-09-17 06:48:47,0.000s,PASSED
"GetDateStart = UI.getOneColumnDatabase(""172.16.94.70"", ""SEA"", ""SELECT REPLACE(CONVERT(VARCHAR(11),GETDATE()-30,106), ' ','/') AS StartDate"", ""StartDate"")",Chrome 85.0.4183.102,,,2020-09-17 06:48:47,2020-09-17 06:48:47,0.220s,PASSED
random = Random().nextInt(length),Chrome 85.0.4183.102,,,2020-09-17 06:48:47,2020-09-17 06:48:47,0.000s,PASSED
strDateStart = GetDateStart[random].toString(),Chrome 85.0.4183.102,,,2020-09-17 06:48:47,2020-09-17 06:48:47,0.005s,PASSED
println(strDateStart),Chrome 85.0.4183.102,,,2020-09-17 06:48:47,2020-09-17 06:48:47,0.002s,PASSED
"GetDateEnd = UI.getOneColumnDatabase(""172.16.94.70"", ""SEA"", ""SELECT REPLACE(CONVERT(VARCHAR(11),GETDATE(),106), ' ','/') AS StartDate"", ""StartDate"")",Chrome 85.0.4183.102,,,2020-09-17 06:48:47,2020-09-17 06:48:47,0.192s,PASSED
random = Random().nextInt(length),Chrome 85.0.4183.102,,,2020-09-17 06:48:47,2020-09-17 06:48:47,0.001s,PASSED
strDateEnd = GetDateEnd[random].toString(),Chrome 85.0.4183.102,,,2020-09-17 06:48:47,2020-09-17 06:48:47,0.001s,PASSED
println(strDateEnd),Chrome 85.0.4183.102,,,2020-09-17 06:48:47,2020-09-17 06:48:47,0.001s,PASSED
"callTestCase(findTestCase(""Test Cases/Page/GMA/ClaimPayMon/SearchPayMonPage""), [""param"":""date"", ""param2"":"""", ""param3"":""""], STOP_ON_FAILURE)",Chrome 85.0.4183.102,,,2020-09-17 06:48:47,2020-09-17 06:49:09,21.921s,PASSED
"callTestCase(findTestCase(""Test Cases/Page/GMA/ClaimPayMon/DownloadExcel""), ["""":""""], STOP_ON_FAILURE)",Chrome 85.0.4183.102,,,2020-09-17 06:49:09,2020-09-17 06:49:11,2.032s,PASSED
delay(5),Chrome 85.0.4183.102,,,2020-09-17 06:49:11,2020-09-17 06:49:16,5.006s,PASSED
"callTestCase(findTestCase(""Test Cases/Scenario/GMA/ClaimPayMon/ClosePopUpSearchAction""), ["""":""""], STOP_ON_FAILURE)",Chrome 85.0.4183.102,,,2020-09-17 06:49:16,2020-09-17 06:49:20,4.214s,PASSED
closeBrowser(),Chrome 85.0.4183.102,,,2020-09-17 06:49:20,2020-09-17 06:49:21,0.920s,PASSED
,,,,,,,
Test Cases/Scenario/_SCRUM/Sprint_16/S16_010 - Download Excel Data - Search By ClaimNo - Invalid,Chrome 85.0.4183.102,,,2020-09-17 06:49:21,2020-09-17 06:49:57,35.857s,PASSED
"GetClaimNumber = UI.getOneColumnDatabase(""172.16.94.70"", ""SEA"", GMA_QueryGetInvoiceData, ""ClaimNumber"")",Chrome 85.0.4183.102,,,2020-09-17 06:49:22,2020-09-17 06:49:22,0.460s,PASSED
random = Random().nextInt(length),Chrome 85.0.4183.102,,,2020-09-17 06:49:22,2020-09-17 06:49:22,0.001s,PASSED
ClaimNumber = GetClaimNumber[random].toString(),Chrome 85.0.4183.102,,,2020-09-17 06:49:22,2020-09-17 06:49:22,0.001s,PASSED
println(ClaimNumber),Chrome 85.0.4183.102,,,2020-09-17 06:49:22,2020-09-17 06:49:22,0.002s,PASSED
"callTestCase(findTestCase(""Test Cases/Page/GMA/ClaimPayMon/SearchPayMonPage""), [""param"":""claimno"", ""param2"":""Invalid"", ""param3"":""""], STOP_ON_FAILURE)",Chrome 85.0.4183.102,,,2020-09-17 06:49:22,2020-09-17 06:49:45,22.764s,PASSED
"callTestCase(findTestCase(""Test Cases/Page/GMA/ClaimPayMon/DownloadExcel""), ["""":""""], STOP_ON_FAILURE)",Chrome 85.0.4183.102,,,2020-09-17 06:49:45,2020-09-17 06:49:47,2.210s,PASSED
delay(5),Chrome 85.0.4183.102,,,2020-09-17 06:49:47,2020-09-17 06:49:52,5.003s,PASSED
"callTestCase(findTestCase(""Test Cases/Scenario/GMA/ClaimPayMon/ClosePopUpSearchAction""), ["""":""""], STOP_ON_FAILURE)",Chrome 85.0.4183.102,,,2020-09-17 06:49:52,2020-09-17 06:49:56,4.042s,PASSED
closeBrowser(),Chrome 85.0.4183.102,,,2020-09-17 06:49:56,2020-09-17 06:49:57,0.881s,PASSED
,,,,,,,
Test Cases/Scenario/_SCRUM/Sprint_16/S16_011 - Download Excel Data - Search By Company X InvoiceNo - Invalid,Chrome 85.0.4183.102,,,2020-09-17 06:49:57,2020-09-17 06:50:36,38.320s,PASSED
checkDB = <not implemented yet for class: org.codehaus.groovy.ast.expr.EmptyExpression>,Chrome 85.0.4183.102,,,2020-09-17 06:49:58,2020-09-17 06:49:58,0.000s,PASSED
"strCompany = """"",Chrome 85.0.4183.102,,,2020-09-17 06:49:58,2020-09-17 06:49:58,0.000s,PASSED
"strInvoiceNo = """"",Chrome 85.0.4183.102,,,2020-09-17 06:49:58,2020-09-17 06:49:58,0.001s,PASSED
"checkDB = REA.getAllDataDatabase(""172.16.94.70"", ""SEA"", GMA_QueryGetInvoiceData2)",Chrome 85.0.4183.102,,,2020-09-17 06:49:58,2020-09-17 06:49:59,0.471s,PASSED
"for ([i = 0, i < size, (i++)])",Chrome 85.0.4183.102,,,2020-09-17 06:49:59,2020-09-17 06:49:59,0.297s,PASSED
"callTestCase(findTestCase(""Test Cases/Page/GMA/ClaimPayMon/SearchPayMonPage""), [""param"":""company"", ""param1"":""invoiceno"", ""param2"":""Invalid"", ""param2b"":strInvoiceNo, ""param2c"":"""", ""param3"":""""], STOP_ON_FAILURE)",Chrome 85.0.4183.102,,,2020-09-17 06:49:59,2020-09-17 06:50:23,24.276s,PASSED
"callTestCase(findTestCase(""Test Cases/Page/GMA/ClaimPayMon/DownloadExcel""), ["""":""""], STOP_ON_FAILURE)",Chrome 85.0.4183.102,,,2020-09-17 06:50:23,2020-09-17 06:50:25,2.089s,PASSED
delay(5),Chrome 85.0.4183.102,,,2020-09-17 06:50:25,2020-09-17 06:50:30,5.006s,PASSED
"callTestCase(findTestCase(""Test Cases/Scenario/GMA/ClaimPayMon/ClosePopUpSearchAction""), ["""":""""], STOP_ON_FAILURE)",Chrome 85.0.4183.102,,,2020-09-17 06:50:30,2020-09-17 06:50:34,4.057s,PASSED
closeBrowser(),Chrome 85.0.4183.102,,,2020-09-17 06:50:34,2020-09-17 06:50:36,1.106s,PASSED
,,,,,,,
Test Cases/Scenario/_SCRUM/Sprint_16/S16_012 - Download Excel Data - Search By ClaimStatus X Date - Invalid,Chrome 85.0.4183.102,,,2020-09-17 06:50:36,2020-09-17 06:51:07,31.742s,PASSED
checkDB = <not implemented yet for class: org.codehaus.groovy.ast.expr.EmptyExpression>,Chrome 85.0.4183.102,,,2020-09-17 06:50:36,2020-09-17 06:50:36,0.001s,PASSED
"strClaimStatus = """"",Chrome 85.0.4183.102,,,2020-09-17 06:50:36,2020-09-17 06:50:36,0.000s,PASSED
"checkDB = REA.getAllDataDatabase(""172.16.94.70"", ""SEA"", GMA_QueryGetInvoiceData2)",Chrome 85.0.4183.102,,,2020-09-17 06:50:36,2020-09-17 06:50:37,0.643s,PASSED
"for ([i = 0, i < size, (i++)])",Chrome 85.0.4183.102,,,2020-09-17 06:50:37,2020-09-17 06:50:37,0.002s,PASSED
"callTestCase(findTestCase(""Test Cases/Page/GMA/ClaimPayMon/SearchPayMonPage""), [""param"":""claimstatus"", ""param1"":""date"", ""param2"":"""", ""param2b"":""01/Jan/2020"", ""param2c"":""04/Sep/2020"", ""param3"":""""], STOP_ON_FAILURE)",Chrome 85.0.4183.102,,,2020-09-17 06:50:37,2020-09-17 06:50:55,18.650s,PASSED
"callTestCase(findTestCase(""Test Cases/Page/GMA/ClaimPayMon/DownloadExcel""), ["""":""""], STOP_ON_FAILURE)",Chrome 85.0.4183.102,,,2020-09-17 06:50:55,2020-09-17 06:50:57,2.097s,PASSED
delay(5),Chrome 85.0.4183.102,,,2020-09-17 06:50:57,2020-09-17 06:51:02,5.003s,PASSED
"callTestCase(findTestCase(""Test Cases/Scenario/GMA/ClaimPayMon/ClosePopUpSearchAction""), ["""":""""], STOP_ON_FAILURE)",Chrome 85.0.4183.102,,,2020-09-17 06:51:02,2020-09-17 06:51:06,3.983s,PASSED
closeBrowser(),Chrome 85.0.4183.102,,,2020-09-17 06:51:06,2020-09-17 06:51:07,1.019s,PASSED
