{
  "log" : {
    "version" : "1.2",
    "pages" : [ ],
    "entries" : [ {
      "startedDateTime" : "2020-11-03T13:32:19.971Z",
      "request" : {
        "method" : "POST",
        "url" : "https://172.16.95.26/GardaAkses/API/root/signin",
        "httpVersion" : "",
        "cookies" : [ ],
        "headers" : [ {
          "name" : "Content-Type",
          "value" : "application/x-www-form-urlencoded"
        } ],
        "queryString" : [ ],
        "postData" : {
          "mimeType" : "application/x-www-form-urlencoded",
          "params" : [ {
            "name" : "username",
            "value" : "shp.rumahsakitklinik@gmail.com",
            "comment" : ""
          }, {
            "name" : "password",
            "value" : "FJY7tg+b9viCVpqk9w+/4A==",
            "comment" : ""
          }, {
            "name" : "biztype",
            "value" : "12",
            "comment" : ""
          } ],
          "comment" : ""
        },
        "headersSize" : 0,
        "bodySize" : 0,
        "comment" : ""
      },
      "response" : {
        "status" : 200,
        "statusText" : "",
        "httpVersion" : "",
        "cookies" : [ ],
        "headers" : [ {
          "name" : "Server",
          "value" : "Microsoft-IIS/8.5"
        }, {
          "name" : "Server",
          "value" : "Microsoft-IIS/8.5"
        }, {
          "name" : "X-Content-Type-Options",
          "value" : "nosniff"
        }, {
          "name" : "Pragma",
          "value" : "no-cache"
        }, {
          "name" : "Date",
          "value" : "Tue, 03 Nov 2020 13:33:06 GMT"
        }, {
          "name" : "X-Frame-Options",
          "value" : "SAMEORIGIN"
        }, {
          "name" : "Strict-Transport-Security",
          "value" : "max-age=16070400"
        }, {
          "name" : "Cache-Control",
          "value" : "no-cache"
        }, {
          "name" : "X-AspNet-Version",
          "value" : "4.0.30319"
        }, {
          "name" : "Expires",
          "value" : "-1"
        }, {
          "name" : "#status#",
          "value" : "HTTP/1.1 200 OK"
        }, {
          "name" : "Content-Length",
          "value" : "35"
        }, {
          "name" : "X-XSS-Protection",
          "value" : "1; mode=block"
        }, {
          "name" : "Content-Type",
          "value" : "application/json; charset=utf-8"
        }, {
          "name" : "X-Powered-By",
          "value" : "ASP.NET"
        }, {
          "name" : "X-Powered-By",
          "value" : "ASP.NET"
        } ],
        "content" : {
          "size" : 35,
          "mimeType" : "application/json; charset=utf-8",
          "text" : "{\"status\":false,\"errorCode\":100013}",
          "comment" : ""
        },
        "redirectURL" : "",
        "headersSize" : 369,
        "bodySize" : 35,
        "comment" : ""
      },
      "cache" : { },
      "timings" : {
        "comment" : "",
        "ssl" : -1,
        "connect" : 486,
        "dns" : -1,
        "receive" : 0,
        "blocked" : -1,
        "wait" : 0,
        "send" : 0
      },
      "comment" : "",
      "_katalonRequestInformation" : {
        "name" : "3",
        "testObjectId" : "Object Repository/GMA-API/Login/SignIn",
        "harId" : "2b6f5273-1577-42e1-ba61-702e94bb7b6d",
        "reportFolder" : null
      },
      "time" : 486
    } ],
    "comment" : ""
  }
}