Suite/Test/Step Name,Browser,Description,Tag,Start time,End time,Duration,Status
Sprint_16,Chrome 85.0.4183.102,,,2020-09-18 11:21:07,2020-09-18 11:23:27,2m - 19.753s,PASSED
,,,,,,,
Test Cases/Scenario/_SCRUM/Sprint_16/S16_021 - Upload Document Pending - JPG File,Chrome 85.0.4183.102,,,2020-09-18 11:21:08,2020-09-18 11:22:27,1m - 18.425s,PASSED
"GetPending = UI.getOneColumnDatabase(""172.16.94.70"", ""SEA"", GMA_QueryGetPendingData, ""NamaPeserta"")",Chrome 85.0.4183.102,,,2020-09-18 11:21:09,2020-09-18 11:21:16,6.941s,PASSED
random = Random().nextInt(length),Chrome 85.0.4183.102,,,2020-09-18 11:21:16,2020-09-18 11:21:16,0.011s,PASSED
Pending = GetPending[random].toString(),Chrome 85.0.4183.102,,,2020-09-18 11:21:16,2020-09-18 11:21:16,0.002s,PASSED
println(Pending),Chrome 85.0.4183.102,,,2020-09-18 11:21:16,2020-09-18 11:21:16,0.011s,PASSED
"picturename = ""Materai 6K.jpg""",Chrome 85.0.4183.102,,,2020-09-18 11:21:16,2020-09-18 11:21:16,0.002s,PASSED
"callTestCase(findTestCase(""Test Cases/Page/GMA/UpDocCLaim/SearchPage""), [""param"":""pending"", ""param2"":""membername"", ""membername"":Pending], STOP_ON_FAILURE)",Chrome 85.0.4183.102,,,2020-09-18 11:21:16,2020-09-18 11:21:57,40.738s,PASSED
delay(3),Chrome 85.0.4183.102,,,2020-09-18 11:21:57,2020-09-18 11:22:00,3.004s,PASSED
"callTestCase(findTestCase(""Test Cases/Scenario/GMA/UpDocClaim/ClosePopUpSearchAction""), ["""":""""], STOP_ON_FAILURE)",Chrome 85.0.4183.102,,,2020-09-18 11:22:00,2020-09-18 11:22:06,6.630s,PASSED
"callTestCase(findTestCase(""Page/GMA/UpDocCLaim/UploadDocumentPage""), [""param"":""pending"", ""membername"":Pending, ""picturename"":picturename], STOP_ON_FAILURE)",Chrome 85.0.4183.102,,,2020-09-18 11:22:06,2020-09-18 11:22:25,18.480s,PASSED
closeBrowser(),Chrome 85.0.4183.102,,,2020-09-18 11:22:25,2020-09-18 11:22:27,1.769s,PASSED
,,,,,,,
Test Cases/Scenario/_SCRUM/Sprint_16/S16_022 - Upload Document Pending - PNG File,Chrome 85.0.4183.102,,,2020-09-18 11:22:27,2020-09-18 11:23:27,1m - 0.277s,PASSED
"GetPending = UI.getOneColumnDatabase(""172.16.94.70"", ""SEA"", GMA_QueryGetPendingData, ""NamaPeserta"")",Chrome 85.0.4183.102,,,2020-09-18 11:22:27,2020-09-18 11:22:28,0.290s,PASSED
random = Random().nextInt(length),Chrome 85.0.4183.102,,,2020-09-18 11:22:28,2020-09-18 11:22:28,0.001s,PASSED
Pending = GetPending[random].toString(),Chrome 85.0.4183.102,,,2020-09-18 11:22:28,2020-09-18 11:22:28,0.002s,PASSED
println(Pending),Chrome 85.0.4183.102,,,2020-09-18 11:22:28,2020-09-18 11:22:28,0.001s,PASSED
"picturename = ""Biling Perawatan.png""",Chrome 85.0.4183.102,,,2020-09-18 11:22:28,2020-09-18 11:22:28,0.002s,PASSED
"callTestCase(findTestCase(""Test Cases/Page/GMA/UpDocCLaim/SearchPage""), [""param"":""pending"", ""param2"":""membername"", ""membername"":Pending], STOP_ON_FAILURE)",Chrome 85.0.4183.102,,,2020-09-18 11:22:28,2020-09-18 11:22:59,31.604s,PASSED
delay(3),Chrome 85.0.4183.102,,,2020-09-18 11:22:59,2020-09-18 11:23:02,3.005s,PASSED
"callTestCase(findTestCase(""Test Cases/Scenario/GMA/UpDocClaim/ClosePopUpSearchAction""), ["""":""""], STOP_ON_FAILURE)",Chrome 85.0.4183.102,,,2020-09-18 11:23:02,2020-09-18 11:23:08,6.145s,PASSED
"callTestCase(findTestCase(""Page/GMA/UpDocCLaim/UploadDocumentPage""), [""param"":""pending"", ""membername"":Pending, ""picturename"":picturename], STOP_ON_FAILURE)",Chrome 85.0.4183.102,,,2020-09-18 11:23:08,2020-09-18 11:23:26,17.380s,PASSED
closeBrowser(),Chrome 85.0.4183.102,,,2020-09-18 11:23:26,2020-09-18 11:23:27,1.269s,PASSED
