Suite/Test/Step Name,Browser,Description,Tag,Start time,End time,Duration,Status
Sprint 17,Chrome 86.0.4240.75,,,2020-10-14 11:01:49,2020-10-14 11:03:10,1m - 21.128s,ERROR
,,,,,,,
Test Cases/Scenario/_SCRUM/Sprint_17/S17_002 - Get Member Void - Success,Chrome 86.0.4240.75,,,2020-10-14 11:01:49,2020-10-14 11:02:23,33.974s,ERROR
"callTestCase(findTestCase(""Test Cases/Page/GMA/EligibilityDischarge/VoidPage""), ["""":""""], STOP_ON_FAILURE)",Chrome 86.0.4240.75,,,2020-10-14 11:01:50,2020-10-14 11:02:22,31.478s,PASSED
"callTestCase(findTestCase(""Test Cases/Scenario/GMA/EligibilityDischarge/SearchMemberAction""), [""param"":""success""], STOP_ON_FAILURE)",Chrome 86.0.4240.75,,,2020-10-14 11:02:22,2020-10-14 11:02:23,1.511s,FAILED
,,,,,,,
Test Cases/Scenario/_SCRUM/Sprint_17/S17_004 - Submit Void - Success,Chrome 86.0.4240.75,,,2020-10-14 11:02:23,2020-10-14 11:02:47,23.202s,ERROR
"callTestCase(findTestCase(""Test Cases/Page/GMA/EligibilityDischarge/VoidPage""), ["""":""""], STOP_ON_FAILURE)",Chrome 86.0.4240.75,,,2020-10-14 11:02:24,2020-10-14 11:02:46,22.103s,PASSED
"callTestCase(findTestCase(""Test Cases/Scenario/GMA/EligibilityDischarge/SearchMemberAction""), [""param"":""success""], STOP_ON_FAILURE)",Chrome 86.0.4240.75,,,2020-10-14 11:02:46,2020-10-14 11:02:47,0.371s,FAILED
,,,,,,,
Test Cases/Scenario/_SCRUM/Sprint_17/S17_007 - Submit Void - More 500 Char Reason,Chrome 86.0.4240.75,,,2020-10-14 11:02:47,2020-10-14 11:03:10,23.298s,ERROR
"callTestCase(findTestCase(""Test Cases/Page/GMA/EligibilityDischarge/VoidPage""), ["""":""""], STOP_ON_FAILURE)",Chrome 86.0.4240.75,,,2020-10-14 11:02:47,2020-10-14 11:03:10,22.616s,PASSED
"callTestCase(findTestCase(""Test Cases/Scenario/GMA/EligibilityDischarge/SearchMemberAction""), [""param"":""success""], STOP_ON_FAILURE)",Chrome 86.0.4240.75,,,2020-10-14 11:03:10,2020-10-14 11:03:10,0.311s,FAILED
