Suite/Test/Step Name,Browser,Description,Tag,Start time,End time,Duration,Status
Sprint_16,Chrome 85.0.4183.102,,,2020-09-17 04:59:13,2020-09-17 04:59:51,38.266s,PASSED
,,,,,,,
Test Cases/Scenario/_TEST/00029 - Get Payment Monitoring - by Date - Blank StartDate,Chrome 85.0.4183.102,,,2020-09-17 04:59:14,2020-09-17 04:59:51,37.618s,PASSED
"GetMemberName = UI.getOneColumnDatabase(""172.16.94.70"", ""SEA"", GMA_QueryGetInvoiceData, ""MemberName"")",Chrome 85.0.4183.102,,,2020-09-17 04:59:14,2020-09-17 04:59:18,3.752s,PASSED
random = Random().nextInt(length),Chrome 85.0.4183.102,,,2020-09-17 04:59:18,2020-09-17 04:59:18,0.011s,PASSED
MemberName = GetMemberName[random].toString(),Chrome 85.0.4183.102,,,2020-09-17 04:59:18,2020-09-17 04:59:18,0.004s,PASSED
println(MemberName),Chrome 85.0.4183.102,,,2020-09-17 04:59:18,2020-09-17 04:59:18,0.008s,PASSED
"GetDateStart = UI.getOneColumnDatabase(""172.16.94.70"", ""SEA"", ""SELECT REPLACE(CONVERT(VARCHAR(11),GETDATE()-30,106), ' ','/') AS StartDate"", ""StartDate"")",Chrome 85.0.4183.102,,,2020-09-17 04:59:18,2020-09-17 04:59:19,0.303s,PASSED
random = Random().nextInt(length),Chrome 85.0.4183.102,,,2020-09-17 04:59:19,2020-09-17 04:59:19,0.002s,PASSED
strDateStart = GetDateStart[random].toString(),Chrome 85.0.4183.102,,,2020-09-17 04:59:19,2020-09-17 04:59:19,0.001s,PASSED
println(strDateStart),Chrome 85.0.4183.102,,,2020-09-17 04:59:19,2020-09-17 04:59:19,0.004s,PASSED
"GetDateEnd = UI.getOneColumnDatabase(""172.16.94.70"", ""SEA"", ""SELECT REPLACE(CONVERT(VARCHAR(11),GETDATE(),106), ' ','/') AS StartDate"", ""StartDate"")",Chrome 85.0.4183.102,,,2020-09-17 04:59:19,2020-09-17 04:59:19,0.229s,PASSED
random = Random().nextInt(length),Chrome 85.0.4183.102,,,2020-09-17 04:59:19,2020-09-17 04:59:19,0.002s,PASSED
strDateEnd = GetDateEnd[random].toString(),Chrome 85.0.4183.102,,,2020-09-17 04:59:19,2020-09-17 04:59:19,0.002s,PASSED
println(strDateEnd),Chrome 85.0.4183.102,,,2020-09-17 04:59:19,2020-09-17 04:59:19,0.003s,PASSED
"callTestCase(findTestCase(""Test Cases/Page/GMA/ClaimPayMon/SearchPayMonPage""), [""param"":""date"", ""param2"":"""", ""param3"":""""], STOP_ON_FAILURE)",Chrome 85.0.4183.102,,,2020-09-17 04:59:19,2020-09-17 04:59:42,23.090s,PASSED
delay(5),Chrome 85.0.4183.102,,,2020-09-17 04:59:42,2020-09-17 04:59:47,5.018s,PASSED
"callTestCase(findTestCase(""Test Cases/Scenario/GMA/ClaimPayMon/ClosePopUpSearchAction""), ["""":""""], STOP_ON_FAILURE)",Chrome 85.0.4183.102,,,2020-09-17 04:59:47,2020-09-17 04:59:50,3.321s,PASSED
closeBrowser(),Chrome 85.0.4183.102,,,2020-09-17 04:59:50,2020-09-17 04:59:51,1.244s,PASSED
