Suite/Test/Step Name,Browser,Description,Tag,Start time,End time,Duration,Status
Sprint_16,Chrome 85.0.4183.102,,,2020-09-17 04:42:33,2020-09-17 04:49:47,7m - 14.302s,ERROR
,,,,,,,
Test Cases/Scenario/_TEST/00022 - Get Payment Monitoring - by InvoiceNo,Chrome 85.0.4183.102,,,2020-09-17 04:42:33,2020-09-17 04:43:20,47.005s,PASSED
"GetInvoiceNo = UI.getOneColumnDatabase(""172.16.94.70"", ""SEA"", GMA_QueryGetInvoiceData, ""InvoiceNo"")",Chrome 85.0.4183.102,,,2020-09-17 04:42:34,2020-09-17 04:42:38,4.365s,PASSED
random = Random().nextInt(length),Chrome 85.0.4183.102,,,2020-09-17 04:42:38,2020-09-17 04:42:38,0.011s,PASSED
InvoiceNo = GetInvoiceNo[random].toString(),Chrome 85.0.4183.102,,,2020-09-17 04:42:38,2020-09-17 04:42:38,0.000s,PASSED
println(InvoiceNo),Chrome 85.0.4183.102,,,2020-09-17 04:42:38,2020-09-17 04:42:38,0.010s,PASSED
"callTestCase(findTestCase(""Test Cases/Page/GMA/ClaimPayMon/SearchPayMonPage""), [""param"":""invoiceno"", ""param2"":InvoiceNo, ""param3"":""""], STOP_ON_FAILURE)",Chrome 85.0.4183.102,,,2020-09-17 04:42:38,2020-09-17 04:43:11,32.528s,PASSED
delay(5),Chrome 85.0.4183.102,,,2020-09-17 04:43:11,2020-09-17 04:43:16,5.014s,PASSED
"callTestCase(findTestCase(""Test Cases/Scenario/GMA/ClaimPayMon/ClosePopUpSearchAction""), ["""":""""], STOP_ON_FAILURE)",Chrome 85.0.4183.102,,,2020-09-17 04:43:16,2020-09-17 04:43:19,3.504s,PASSED
closeBrowser(),Chrome 85.0.4183.102,,,2020-09-17 04:43:19,2020-09-17 04:43:20,0.957s,PASSED
,,,,,,,
Test Cases/Scenario/_TEST/00023 - Get Payment Monitoring - by InvoiceNo - Invalid,Chrome 85.0.4183.102,,,2020-09-17 04:43:20,2020-09-17 04:43:54,33.858s,PASSED
"GetInvoiceNo = UI.getOneColumnDatabase(""172.16.94.70"", ""SEA"", GMA_QueryGetInvoiceData, ""InvoiceNo"")",Chrome 85.0.4183.102,,,2020-09-17 04:43:21,2020-09-17 04:43:21,0.395s,PASSED
random = Random().nextInt(length),Chrome 85.0.4183.102,,,2020-09-17 04:43:21,2020-09-17 04:43:21,0.001s,PASSED
InvoiceNo = GetInvoiceNo[random].toString(),Chrome 85.0.4183.102,,,2020-09-17 04:43:21,2020-09-17 04:43:21,0.000s,PASSED
println(InvoiceNo),Chrome 85.0.4183.102,,,2020-09-17 04:43:21,2020-09-17 04:43:21,0.000s,PASSED
"callTestCase(findTestCase(""Test Cases/Page/GMA/ClaimPayMon/SearchPayMonPage""), [""param"":""invoiceno"", ""param2"":""Invalid"", ""param3"":""""], STOP_ON_FAILURE)",Chrome 85.0.4183.102,,,2020-09-17 04:43:21,2020-09-17 04:43:45,23.743s,PASSED
delay(5),Chrome 85.0.4183.102,,,2020-09-17 04:43:45,2020-09-17 04:43:50,5.007s,PASSED
"callTestCase(findTestCase(""Test Cases/Scenario/GMA/ClaimPayMon/ClosePopUpSearchAction""), ["""":""""], STOP_ON_FAILURE)",Chrome 85.0.4183.102,,,2020-09-17 04:43:50,2020-09-17 04:43:53,3.232s,PASSED
closeBrowser(),Chrome 85.0.4183.102,,,2020-09-17 04:43:53,2020-09-17 04:43:54,1.021s,PASSED
,,,,,,,
Test Cases/Scenario/_TEST/00025 - Get Payment Monitoring - by PasienName,Chrome 85.0.4183.102,,,2020-09-17 04:43:54,2020-09-17 04:44:32,37.979s,PASSED
"GetMemberName = UI.getOneColumnDatabase(""172.16.94.70"", ""SEA"", GMA_QueryGetInvoiceData, ""MemberName"")",Chrome 85.0.4183.102,,,2020-09-17 04:43:55,2020-09-17 04:43:55,0.387s,PASSED
random = Random().nextInt(length),Chrome 85.0.4183.102,,,2020-09-17 04:43:55,2020-09-17 04:43:55,0.002s,PASSED
MemberName = GetMemberName[random].toString(),Chrome 85.0.4183.102,,,2020-09-17 04:43:55,2020-09-17 04:43:55,0.005s,PASSED
println(MemberName),Chrome 85.0.4183.102,,,2020-09-17 04:43:55,2020-09-17 04:43:55,0.001s,PASSED
"callTestCase(findTestCase(""Test Cases/Page/GMA/ClaimPayMon/SearchPayMonPage""), [""param"":""pasienname"", ""param2"":MemberName, ""param3"":""""], STOP_ON_FAILURE)",Chrome 85.0.4183.102,,,2020-09-17 04:43:55,2020-09-17 04:44:21,26.354s,PASSED
delay(5),Chrome 85.0.4183.102,,,2020-09-17 04:44:21,2020-09-17 04:44:26,5.004s,PASSED
"callTestCase(findTestCase(""Test Cases/Scenario/GMA/ClaimPayMon/ClosePopUpSearchAction""), ["""":""""], STOP_ON_FAILURE)",Chrome 85.0.4183.102,,,2020-09-17 04:44:26,2020-09-17 04:44:30,3.304s,PASSED
closeBrowser(),Chrome 85.0.4183.102,,,2020-09-17 04:44:30,2020-09-17 04:44:32,2.385s,PASSED
,,,,,,,
Test Cases/Scenario/_TEST/00026 - Get Payment Monitoring - by PasienName - Invalid,Chrome 85.0.4183.102,,,2020-09-17 04:44:32,2020-09-17 04:45:12,39.424s,PASSED
"GetMemberName = UI.getOneColumnDatabase(""172.16.94.70"", ""SEA"", GMA_QueryGetInvoiceData, ""MemberName"")",Chrome 85.0.4183.102,,,2020-09-17 04:44:33,2020-09-17 04:44:33,0.373s,PASSED
random = Random().nextInt(length),Chrome 85.0.4183.102,,,2020-09-17 04:44:33,2020-09-17 04:44:33,0.001s,PASSED
MemberName = GetMemberName[random].toString(),Chrome 85.0.4183.102,,,2020-09-17 04:44:33,2020-09-17 04:44:33,0.001s,PASSED
println(MemberName),Chrome 85.0.4183.102,,,2020-09-17 04:44:33,2020-09-17 04:44:33,0.001s,PASSED
"callTestCase(findTestCase(""Test Cases/Page/GMA/ClaimPayMon/SearchPayMonPage""), [""param"":""pasienname"", ""param2"":""Invalid"", ""param3"":""""], STOP_ON_FAILURE)",Chrome 85.0.4183.102,,,2020-09-17 04:44:33,2020-09-17 04:45:02,29.004s,PASSED
delay(5),Chrome 85.0.4183.102,,,2020-09-17 04:45:02,2020-09-17 04:45:07,5.007s,PASSED
"callTestCase(findTestCase(""Test Cases/Scenario/GMA/ClaimPayMon/ClosePopUpSearchAction""), ["""":""""], STOP_ON_FAILURE)",Chrome 85.0.4183.102,,,2020-09-17 04:45:07,2020-09-17 04:45:11,3.276s,PASSED
closeBrowser(),Chrome 85.0.4183.102,,,2020-09-17 04:45:11,2020-09-17 04:45:12,0.961s,PASSED
,,,,,,,
Test Cases/Scenario/_TEST/00028 - Get Payment Monitoring - by Date,Chrome 85.0.4183.102,,,2020-09-17 04:45:12,2020-09-17 04:45:54,42.382s,PASSED
"GetMemberName = UI.getOneColumnDatabase(""172.16.94.70"", ""SEA"", GMA_QueryGetInvoiceData, ""MemberName"")",Chrome 85.0.4183.102,,,2020-09-17 04:45:12,2020-09-17 04:45:12,0.417s,PASSED
random = Random().nextInt(length),Chrome 85.0.4183.102,,,2020-09-17 04:45:12,2020-09-17 04:45:12,0.005s,PASSED
MemberName = GetMemberName[random].toString(),Chrome 85.0.4183.102,,,2020-09-17 04:45:12,2020-09-17 04:45:12,0.001s,PASSED
println(MemberName),Chrome 85.0.4183.102,,,2020-09-17 04:45:12,2020-09-17 04:45:12,0.001s,PASSED
"GetDateStart = UI.getOneColumnDatabase(""172.16.94.70"", ""SEA"", ""SELECT REPLACE(CONVERT(VARCHAR(11),GETDATE()-30,106), ' ','/') AS StartDate"", ""StartDate"")",Chrome 85.0.4183.102,,,2020-09-17 04:45:12,2020-09-17 04:45:13,0.242s,PASSED
random = Random().nextInt(length),Chrome 85.0.4183.102,,,2020-09-17 04:45:13,2020-09-17 04:45:13,0.000s,PASSED
strDateStart = GetDateStart[random].toString(),Chrome 85.0.4183.102,,,2020-09-17 04:45:13,2020-09-17 04:45:13,0.003s,PASSED
println(strDateStart),Chrome 85.0.4183.102,,,2020-09-17 04:45:13,2020-09-17 04:45:13,0.002s,PASSED
"GetDateEnd = UI.getOneColumnDatabase(""172.16.94.70"", ""SEA"", ""SELECT REPLACE(CONVERT(VARCHAR(11),GETDATE(),106), ' ','/') AS StartDate"", ""StartDate"")",Chrome 85.0.4183.102,,,2020-09-17 04:45:13,2020-09-17 04:45:13,0.242s,PASSED
random = Random().nextInt(length),Chrome 85.0.4183.102,,,2020-09-17 04:45:13,2020-09-17 04:45:13,0.000s,PASSED
strDateEnd = GetDateEnd[random].toString(),Chrome 85.0.4183.102,,,2020-09-17 04:45:13,2020-09-17 04:45:13,0.000s,PASSED
println(strDateEnd),Chrome 85.0.4183.102,,,2020-09-17 04:45:13,2020-09-17 04:45:13,0.000s,PASSED
"callTestCase(findTestCase(""Test Cases/Page/GMA/ClaimPayMon/SearchPayMonPage""), [""param"":""date"", ""param2"":strDateStart, ""param3"":strDateEnd], STOP_ON_FAILURE)",Chrome 85.0.4183.102,,,2020-09-17 04:45:13,2020-09-17 04:45:45,31.848s,PASSED
delay(5),Chrome 85.0.4183.102,,,2020-09-17 04:45:45,2020-09-17 04:45:50,5.005s,PASSED
"callTestCase(findTestCase(""Test Cases/Scenario/GMA/ClaimPayMon/ClosePopUpSearchAction""), ["""":""""], STOP_ON_FAILURE)",Chrome 85.0.4183.102,,,2020-09-17 04:45:50,2020-09-17 04:45:53,3.081s,PASSED
closeBrowser(),Chrome 85.0.4183.102,,,2020-09-17 04:45:53,2020-09-17 04:45:54,1.155s,PASSED
,,,,,,,
Test Cases/Scenario/_TEST/00029 - Get Payment Monitoring - by Date - Blank StartDate,Chrome 85.0.4183.102,,,2020-09-17 04:45:54,2020-09-17 04:45:54,0.421s,ERROR
,,,,,,,
Test Cases/Scenario/_TEST/00031 - Get Payment Monitoring - by ClaimNo,Chrome 85.0.4183.102,,,2020-09-17 04:45:54,2020-09-17 04:46:27,33.014s,PASSED
"GetClaimNumber = UI.getOneColumnDatabase(""172.16.94.70"", ""SEA"", GMA_QueryGetInvoiceData, ""ClaimNumber"")",Chrome 85.0.4183.102,,,2020-09-17 04:45:55,2020-09-17 04:45:55,0.344s,PASSED
random = Random().nextInt(length),Chrome 85.0.4183.102,,,2020-09-17 04:45:55,2020-09-17 04:45:55,0.001s,PASSED
ClaimNumber = GetClaimNumber[random].toString(),Chrome 85.0.4183.102,,,2020-09-17 04:45:55,2020-09-17 04:45:55,0.000s,PASSED
println(ClaimNumber),Chrome 85.0.4183.102,,,2020-09-17 04:45:55,2020-09-17 04:45:55,0.000s,PASSED
"callTestCase(findTestCase(""Test Cases/Page/GMA/ClaimPayMon/SearchPayMonPage""), [""param"":""claimno"", ""param2"":ClaimNumber, ""param3"":""""], STOP_ON_FAILURE)",Chrome 85.0.4183.102,,,2020-09-17 04:45:55,2020-09-17 04:46:18,23.351s,PASSED
delay(5),Chrome 85.0.4183.102,,,2020-09-17 04:46:18,2020-09-17 04:46:23,5.005s,PASSED
"callTestCase(findTestCase(""Test Cases/Scenario/GMA/ClaimPayMon/ClosePopUpSearchAction""), ["""":""""], STOP_ON_FAILURE)",Chrome 85.0.4183.102,,,2020-09-17 04:46:23,2020-09-17 04:46:27,3.073s,PASSED
closeBrowser(),Chrome 85.0.4183.102,,,2020-09-17 04:46:27,2020-09-17 04:46:27,0.917s,PASSED
,,,,,,,
Test Cases/Scenario/_TEST/00032 - Get Payment Monitoring - by ClaimNo - Invalid,Chrome 85.0.4183.102,,,2020-09-17 04:46:27,2020-09-17 04:46:59,31.698s,PASSED
"GetClaimNumber = UI.getOneColumnDatabase(""172.16.94.70"", ""SEA"", GMA_QueryGetInvoiceData, ""ClaimNumber"")",Chrome 85.0.4183.102,,,2020-09-17 04:46:28,2020-09-17 04:46:28,0.426s,PASSED
random = Random().nextInt(length),Chrome 85.0.4183.102,,,2020-09-17 04:46:28,2020-09-17 04:46:28,0.000s,PASSED
ClaimNumber = GetClaimNumber[random].toString(),Chrome 85.0.4183.102,,,2020-09-17 04:46:28,2020-09-17 04:46:28,0.001s,PASSED
println(ClaimNumber),Chrome 85.0.4183.102,,,2020-09-17 04:46:28,2020-09-17 04:46:28,0.001s,PASSED
"callTestCase(findTestCase(""Test Cases/Page/GMA/ClaimPayMon/SearchPayMonPage""), [""param"":""claimno"", ""param2"":""Invalid"", ""param3"":""""], STOP_ON_FAILURE)",Chrome 85.0.4183.102,,,2020-09-17 04:46:28,2020-09-17 04:46:50,21.371s,PASSED
delay(5),Chrome 85.0.4183.102,,,2020-09-17 04:46:50,2020-09-17 04:46:55,5.004s,PASSED
"callTestCase(findTestCase(""Test Cases/Scenario/GMA/ClaimPayMon/ClosePopUpSearchAction""), ["""":""""], STOP_ON_FAILURE)",Chrome 85.0.4183.102,,,2020-09-17 04:46:55,2020-09-17 04:46:58,3.094s,PASSED
closeBrowser(),Chrome 85.0.4183.102,,,2020-09-17 04:46:58,2020-09-17 04:46:59,1.391s,PASSED
,,,,,,,
Test Cases/Scenario/_TEST/00034 - Get Payment Monitoring - by Company X InvoiceNo,Chrome 85.0.4183.102,,,2020-09-17 04:46:59,2020-09-17 04:47:36,36.602s,PASSED
checkDB = <not implemented yet for class: org.codehaus.groovy.ast.expr.EmptyExpression>,Chrome 85.0.4183.102,,,2020-09-17 04:47:00,2020-09-17 04:47:00,0.001s,PASSED
"strCompany = """"",Chrome 85.0.4183.102,,,2020-09-17 04:47:00,2020-09-17 04:47:00,0.001s,PASSED
"strInvoiceNo = """"",Chrome 85.0.4183.102,,,2020-09-17 04:47:00,2020-09-17 04:47:00,0.000s,PASSED
"checkDB = REA.getAllDataDatabase(""172.16.94.70"", ""SEA"", GMA_QueryGetInvoiceData2)",Chrome 85.0.4183.102,,,2020-09-17 04:47:00,2020-09-17 04:47:01,0.804s,PASSED
"for ([i = 0, i < size, (i++)])",Chrome 85.0.4183.102,,,2020-09-17 04:47:01,2020-09-17 04:47:01,0.028s,PASSED
"callTestCase(findTestCase(""Test Cases/Page/GMA/ClaimPayMon/SearchPayMonPage""), [""param"":""company"", ""param1"":""invoiceno"", ""param2"":strCompany, ""param2b"":strInvoiceNo, ""param2c"":"""", ""param3"":""""], STOP_ON_FAILURE)",Chrome 85.0.4183.102,,,2020-09-17 04:47:01,2020-09-17 04:47:26,25.666s,PASSED
delay(5),Chrome 85.0.4183.102,,,2020-09-17 04:47:26,2020-09-17 04:47:31,5.003s,PASSED
"callTestCase(findTestCase(""Test Cases/Scenario/GMA/ClaimPayMon/ClosePopUpSearchAction""), ["""":""""], STOP_ON_FAILURE)",Chrome 85.0.4183.102,,,2020-09-17 04:47:31,2020-09-17 04:47:34,3.089s,PASSED
closeBrowser(),Chrome 85.0.4183.102,,,2020-09-17 04:47:34,2020-09-17 04:47:36,1.394s,PASSED
,,,,,,,
Test Cases/Scenario/_TEST/00035 - Get Payment Monitoring - by Company X InvoiceNo - Invalid,Chrome 85.0.4183.102,,,2020-09-17 04:47:36,2020-09-17 04:48:08,32.678s,PASSED
checkDB = <not implemented yet for class: org.codehaus.groovy.ast.expr.EmptyExpression>,Chrome 85.0.4183.102,,,2020-09-17 04:47:36,2020-09-17 04:47:36,0.004s,PASSED
"strCompany = """"",Chrome 85.0.4183.102,,,2020-09-17 04:47:36,2020-09-17 04:47:36,0.001s,PASSED
"strInvoiceNo = """"",Chrome 85.0.4183.102,,,2020-09-17 04:47:36,2020-09-17 04:47:36,0.001s,PASSED
"checkDB = REA.getAllDataDatabase(""172.16.94.70"", ""SEA"", GMA_QueryGetInvoiceData2)",Chrome 85.0.4183.102,,,2020-09-17 04:47:36,2020-09-17 04:47:37,0.643s,PASSED
"for ([i = 0, i < size, (i++)])",Chrome 85.0.4183.102,,,2020-09-17 04:47:37,2020-09-17 04:47:37,0.007s,PASSED
"callTestCase(findTestCase(""Test Cases/Page/GMA/ClaimPayMon/SearchPayMonPage""), [""param"":""company"", ""param1"":""invoiceno"", ""param2"":""Invalid"", ""param2b"":strInvoiceNo, ""param2c"":"""", ""param3"":""""], STOP_ON_FAILURE)",Chrome 85.0.4183.102,,,2020-09-17 04:47:37,2020-09-17 04:47:59,22.246s,PASSED
delay(5),Chrome 85.0.4183.102,,,2020-09-17 04:47:59,2020-09-17 04:48:04,5.005s,PASSED
"callTestCase(findTestCase(""Test Cases/Scenario/GMA/ClaimPayMon/ClosePopUpSearchAction""), ["""":""""], STOP_ON_FAILURE)",Chrome 85.0.4183.102,,,2020-09-17 04:48:04,2020-09-17 04:48:07,3.091s,PASSED
closeBrowser(),Chrome 85.0.4183.102,,,2020-09-17 04:48:07,2020-09-17 04:48:08,1.047s,PASSED
,,,,,,,
Test Cases/Scenario/_TEST/00046 - Get Payment Monitoring - by ClaimStatus X NamaPasien,Chrome 85.0.4183.102,,,2020-09-17 04:48:08,2020-09-17 04:48:43,34.212s,PASSED
checkDB = <not implemented yet for class: org.codehaus.groovy.ast.expr.EmptyExpression>,Chrome 85.0.4183.102,,,2020-09-17 04:48:09,2020-09-17 04:48:09,0.001s,PASSED
"strClaimStatus = """"",Chrome 85.0.4183.102,,,2020-09-17 04:48:09,2020-09-17 04:48:09,0.000s,PASSED
"strPasienName = """"",Chrome 85.0.4183.102,,,2020-09-17 04:48:09,2020-09-17 04:48:09,0.000s,PASSED
"checkDB = REA.getAllDataDatabase(""172.16.94.70"", ""SEA"", GMA_QueryGetInvoiceData2)",Chrome 85.0.4183.102,,,2020-09-17 04:48:09,2020-09-17 04:48:09,0.573s,PASSED
"for ([i = 0, i < size, (i++)])",Chrome 85.0.4183.102,,,2020-09-17 04:48:09,2020-09-17 04:48:09,0.004s,PASSED
"callTestCase(findTestCase(""Test Cases/Page/GMA/ClaimPayMon/SearchPayMonPage""), [""param"":""claimstatus"", ""param1"":""pasienname"", ""param2"":strClaimStatus, ""param2b"":strPasienName, ""param2c"":"""", ""param3"":""""], STOP_ON_FAILURE)",Chrome 85.0.4183.102,,,2020-09-17 04:48:09,2020-09-17 04:48:34,24.125s,PASSED
delay(5),Chrome 85.0.4183.102,,,2020-09-17 04:48:34,2020-09-17 04:48:39,5.006s,PASSED
"callTestCase(findTestCase(""Test Cases/Scenario/GMA/ClaimPayMon/ClosePopUpSearchAction""), ["""":""""], STOP_ON_FAILURE)",Chrome 85.0.4183.102,,,2020-09-17 04:48:39,2020-09-17 04:48:42,3.209s,PASSED
closeBrowser(),Chrome 85.0.4183.102,,,2020-09-17 04:48:42,2020-09-17 04:48:43,0.922s,PASSED
,,,,,,,
Test Cases/Scenario/_TEST/00053 - Get Payment Monitoring - by ClaimStatus X Date - Blank Data,Chrome 85.0.4183.102,,,2020-09-17 04:48:43,2020-09-17 04:49:15,32.253s,PASSED
checkDB = <not implemented yet for class: org.codehaus.groovy.ast.expr.EmptyExpression>,Chrome 85.0.4183.102,,,2020-09-17 04:48:43,2020-09-17 04:48:43,0.000s,PASSED
"strClaimStatus = """"",Chrome 85.0.4183.102,,,2020-09-17 04:48:43,2020-09-17 04:48:43,0.000s,PASSED
"checkDB = REA.getAllDataDatabase(""172.16.94.70"", ""SEA"", GMA_QueryGetInvoiceData2)",Chrome 85.0.4183.102,,,2020-09-17 04:48:43,2020-09-17 04:48:44,0.564s,PASSED
"for ([i = 0, i < size, (i++)])",Chrome 85.0.4183.102,,,2020-09-17 04:48:44,2020-09-17 04:48:44,0.002s,PASSED
"callTestCase(findTestCase(""Test Cases/Page/GMA/ClaimPayMon/SearchPayMonPage""), [""param"":""claimstatus"", ""param1"":""date"", ""param2"":"""", ""param2b"":""01/Jan/2020"", ""param2c"":""04/Sep/2020"", ""param3"":""""], STOP_ON_FAILURE)",Chrome 85.0.4183.102,,,2020-09-17 04:48:44,2020-09-17 04:49:05,21.654s,PASSED
delay(5),Chrome 85.0.4183.102,,,2020-09-17 04:49:05,2020-09-17 04:49:10,5.004s,PASSED
"callTestCase(findTestCase(""Test Cases/Scenario/GMA/ClaimPayMon/ClosePopUpSearchAction""), ["""":""""], STOP_ON_FAILURE)",Chrome 85.0.4183.102,,,2020-09-17 04:49:10,2020-09-17 04:49:14,3.195s,PASSED
closeBrowser(),Chrome 85.0.4183.102,,,2020-09-17 04:49:14,2020-09-17 04:49:15,1.423s,PASSED
,,,,,,,
Test Cases/Scenario/_TEST/00054 - Get Payment Monitoring - Blank All Data,Chrome 85.0.4183.102,,,2020-09-17 04:49:15,2020-09-17 04:49:47,32.077s,PASSED
"GetInvoiceNo = UI.getOneColumnDatabase(""172.16.94.70"", ""SEA"", GMA_QueryGetInvoiceData, ""InvoiceNo"")",Chrome 85.0.4183.102,,,2020-09-17 04:49:15,2020-09-17 04:49:16,0.444s,PASSED
random = Random().nextInt(length),Chrome 85.0.4183.102,,,2020-09-17 04:49:16,2020-09-17 04:49:16,0.002s,PASSED
InvoiceNo = GetInvoiceNo[random].toString(),Chrome 85.0.4183.102,,,2020-09-17 04:49:16,2020-09-17 04:49:16,0.002s,PASSED
println(InvoiceNo),Chrome 85.0.4183.102,,,2020-09-17 04:49:16,2020-09-17 04:49:16,0.000s,PASSED
"callTestCase(findTestCase(""Test Cases/Page/GMA/ClaimPayMon/SearchPayMonPage""), [""param"":"""", ""param2"":"""", ""param3"":""""], STOP_ON_FAILURE)",Chrome 85.0.4183.102,,,2020-09-17 04:49:16,2020-09-17 04:49:37,21.501s,PASSED
delay(5),Chrome 85.0.4183.102,,,2020-09-17 04:49:37,2020-09-17 04:49:42,5.005s,PASSED
"callTestCase(findTestCase(""Test Cases/Scenario/GMA/ClaimPayMon/ClosePopUpSearchAction""), ["""":""""], STOP_ON_FAILURE)",Chrome 85.0.4183.102,,,2020-09-17 04:49:42,2020-09-17 04:49:46,3.223s,PASSED
closeBrowser(),Chrome 85.0.4183.102,,,2020-09-17 04:49:46,2020-09-17 04:49:47,1.452s,PASSED
