Suite/Test/Step Name,Browser,Description,Tag,Start time,End time,Duration,Status
Sprint_18,Chrome 86.0.4240.111,,,2020-11-03 20:16:12,2020-11-03 20:22:07,5m - 54.374s,FAILED
,,,,,,,
Test Cases/Scenario/_TEST/00008 - Get Outstanding - by Date,Chrome 86.0.4240.111,,,2020-11-03 20:16:13,2020-11-03 20:17:27,1m - 14.007s,FAILED
"GetDateStart = UI.getOneColumnDatabase(""172.16.94.70"", ""SEA"", ""SELECT REPLACE(CONVERT(VARCHAR(11),GETDATE()-30,106), ' ','/') AS StartDate"", ""StartDate"")",Chrome 86.0.4240.111,,,2020-11-03 20:16:14,2020-11-03 20:16:19,5.310s,PASSED
random = Random().nextInt(length),Chrome 86.0.4240.111,,,2020-11-03 20:16:19,2020-11-03 20:16:19,0.070s,PASSED
strDateStart = GetDateStart[random].toString(),Chrome 86.0.4240.111,,,2020-11-03 20:16:19,2020-11-03 20:16:19,0.002s,PASSED
println(strDateStart),Chrome 86.0.4240.111,,,2020-11-03 20:16:19,2020-11-03 20:16:19,0.008s,PASSED
"GetDateEnd = UI.getOneColumnDatabase(""172.16.94.70"", ""SEA"", ""SELECT REPLACE(CONVERT(VARCHAR(11),GETDATE(),106), ' ','/') AS StartDate"", ""StartDate"")",Chrome 86.0.4240.111,,,2020-11-03 20:16:19,2020-11-03 20:16:20,0.214s,PASSED
random = Random().nextInt(length),Chrome 86.0.4240.111,,,2020-11-03 20:16:20,2020-11-03 20:16:20,0.005s,PASSED
strDateEnd = GetDateEnd[random].toString(),Chrome 86.0.4240.111,,,2020-11-03 20:16:20,2020-11-03 20:16:20,0.003s,PASSED
println(strDateEnd),Chrome 86.0.4240.111,,,2020-11-03 20:16:20,2020-11-03 20:16:20,0.000s,PASSED
"callTestCase(findTestCase(""Test Cases/Page/GMA/UpDocCLaim/SearchPage""), [""param"":""outstanding"", ""param2"":""date"", ""startdate"":strDateStart, ""enddate"":strDateEnd], STOP_ON_FAILURE)",Chrome 86.0.4240.111,,,2020-11-03 20:16:20,2020-11-03 20:17:27,1m - 7.405s,FAILED
,,,,,,,
Test Cases/Scenario/_TEST/00010 - Get Outstanding - by Date - Blank EndDate,Chrome 86.0.4240.111,,,2020-11-03 20:17:27,2020-11-03 20:18:09,42.277s,FAILED
"GetDateStart = UI.getOneColumnDatabase(""172.16.94.70"", ""SEA"", ""SELECT REPLACE(CONVERT(VARCHAR(11),GETDATE()-30,106), ' ','/') AS StartDate"", ""StartDate"")",Chrome 86.0.4240.111,,,2020-11-03 20:17:28,2020-11-03 20:17:29,0.516s,PASSED
random = Random().nextInt(length),Chrome 86.0.4240.111,,,2020-11-03 20:17:29,2020-11-03 20:17:29,0.001s,PASSED
strDateStart = GetDateStart[random].toString(),Chrome 86.0.4240.111,,,2020-11-03 20:17:29,2020-11-03 20:17:29,0.001s,PASSED
println(strDateStart),Chrome 86.0.4240.111,,,2020-11-03 20:17:29,2020-11-03 20:17:29,0.002s,PASSED
"callTestCase(findTestCase(""Test Cases/Page/GMA/UpDocCLaim/SearchPage""), [""param"":""outstanding"", ""param2"":""date"", ""startdate"":strDateStart, ""enddate"":""""], STOP_ON_FAILURE)",Chrome 86.0.4240.111,,,2020-11-03 20:17:29,2020-11-03 20:18:09,40.777s,FAILED
,,,,,,,
Test Cases/Scenario/_TEST/00011 - Get Outstanding - by MemberName,Chrome 86.0.4240.111,,,2020-11-03 20:18:09,2020-11-03 20:19:07,57.762s,PASSED
"GetOutstanding = UI.getOneColumnDatabase(""172.16.94.70"", ""SEA"", GMA_QueyGetOutstandingData, ""NamaPeserta"")",Chrome 86.0.4240.111,,,2020-11-03 20:18:10,2020-11-03 20:18:15,4.799s,PASSED
random = Random().nextInt(length),Chrome 86.0.4240.111,,,2020-11-03 20:18:15,2020-11-03 20:18:15,0.001s,PASSED
Outstanding = GetOutstanding[random].toString(),Chrome 86.0.4240.111,,,2020-11-03 20:18:15,2020-11-03 20:18:15,0.001s,PASSED
println(Outstanding),Chrome 86.0.4240.111,,,2020-11-03 20:18:15,2020-11-03 20:18:15,0.001s,PASSED
"callTestCase(findTestCase(""Test Cases/Page/GMA/UpDocCLaim/SearchPage""), [""param"":""outstanding"", ""param2"":""membername"", ""membername"":Outstanding], STOP_ON_FAILURE)",Chrome 86.0.4240.111,,,2020-11-03 20:18:15,2020-11-03 20:18:54,39.491s,PASSED
delay(5),Chrome 86.0.4240.111,,,2020-11-03 20:18:54,2020-11-03 20:18:59,5.005s,PASSED
"callTestCase(findTestCase(""Test Cases/Scenario/GMA/UpDocClaim/ClosePopUpSearchAction""), ["""":""""], STOP_ON_FAILURE)",Chrome 86.0.4240.111,,,2020-11-03 20:18:59,2020-11-03 20:19:06,6.711s,PASSED
closeBrowser(),Chrome 86.0.4240.111,,,2020-11-03 20:19:06,2020-11-03 20:19:07,1.003s,PASSED
,,,,,,,
Test Cases/Scenario/_TEST/00013 - Get Outstanding - by MemberName - Invalid MemberName,Chrome 86.0.4240.111,,,2020-11-03 20:19:07,2020-11-03 20:20:20,1m - 12.947s,PASSED
"GetOutstanding = UI.getOneColumnDatabase(""172.16.94.70"", ""SEA"", GMA_QueyGetOutstandingData, ""NamaPeserta"")",Chrome 86.0.4240.111,,,2020-11-03 20:19:08,2020-11-03 20:19:08,0.693s,PASSED
random = Random().nextInt(length),Chrome 86.0.4240.111,,,2020-11-03 20:19:08,2020-11-03 20:19:08,0.003s,PASSED
Outstanding = GetOutstanding[random].toString(),Chrome 86.0.4240.111,,,2020-11-03 20:19:08,2020-11-03 20:19:08,0.002s,PASSED
println(Outstanding),Chrome 86.0.4240.111,,,2020-11-03 20:19:08,2020-11-03 20:19:08,0.001s,PASSED
"callTestCase(findTestCase(""Test Cases/Page/GMA/UpDocCLaim/SearchPage""), [""param"":""outstanding"", ""param2"":""membername"", ""membername"":""Invalid""], STOP_ON_FAILURE)",Chrome 86.0.4240.111,,,2020-11-03 20:19:08,2020-11-03 20:20:09,1m - 0.715s,PASSED
delay(5),Chrome 86.0.4240.111,,,2020-11-03 20:20:09,2020-11-03 20:20:14,5.002s,PASSED
"callTestCase(findTestCase(""Test Cases/Scenario/GMA/UpDocClaim/ClosePopUpSearchAction""), ["""":""""], STOP_ON_FAILURE)",Chrome 86.0.4240.111,,,2020-11-03 20:20:14,2020-11-03 20:20:19,4.438s,PASSED
closeBrowser(),Chrome 86.0.4240.111,,,2020-11-03 20:20:19,2020-11-03 20:20:20,1.601s,PASSED
,,,,,,,
Test Cases/Scenario/_TEST/00014 - Get Outstanding - Blank All Data,Chrome 86.0.4240.111,,,2020-11-03 20:20:20,2020-11-03 20:21:05,44.393s,PASSED
"GetOutstanding = UI.getOneColumnDatabase(""172.16.94.70"", ""SEA"", GMA_QueyGetOutstandingData, ""NamaPeserta"")",Chrome 86.0.4240.111,,,2020-11-03 20:20:21,2020-11-03 20:20:21,0.324s,PASSED
random = Random().nextInt(length),Chrome 86.0.4240.111,,,2020-11-03 20:20:21,2020-11-03 20:20:21,0.002s,PASSED
Outstanding = GetOutstanding[random].toString(),Chrome 86.0.4240.111,,,2020-11-03 20:20:21,2020-11-03 20:20:21,0.000s,PASSED
println(Outstanding),Chrome 86.0.4240.111,,,2020-11-03 20:20:21,2020-11-03 20:20:21,0.000s,PASSED
"callTestCase(findTestCase(""Test Cases/Page/GMA/UpDocCLaim/SearchPage""), [""param"":""outstanding"", ""param2"":"""", ""membername"":"""", ""startdate"":"""", ""enddate"":""""], STOP_ON_FAILURE)",Chrome 86.0.4240.111,,,2020-11-03 20:20:21,2020-11-03 20:20:52,31.226s,PASSED
delay(5),Chrome 86.0.4240.111,,,2020-11-03 20:20:52,2020-11-03 20:20:57,5.004s,PASSED
"callTestCase(findTestCase(""Test Cases/Scenario/GMA/UpDocClaim/ClosePopUpSearchAction""), ["""":""""], STOP_ON_FAILURE)",Chrome 86.0.4240.111,,,2020-11-03 20:20:57,2020-11-03 20:21:03,6.316s,PASSED
closeBrowser(),Chrome 86.0.4240.111,,,2020-11-03 20:21:03,2020-11-03 20:21:05,1.128s,PASSED
,,,,,,,
Test Cases/Scenario/_SCRUM/Sprint 15/S15_2 - Get Outstanding - Date X MemberName,Chrome 86.0.4240.111,,,2020-11-03 20:21:05,2020-11-03 20:22:07,1m - 2.095s,PASSED
"GetDateStart = UI.getOneColumnDatabase(""172.16.94.70"", ""SEA"", ""SELECT REPLACE(CONVERT(VARCHAR(11),GETDATE()-30,106), ' ','/') AS StartDate"", ""StartDate"")",Chrome 86.0.4240.111,,,2020-11-03 20:21:05,2020-11-03 20:21:06,0.876s,PASSED
random = Random().nextInt(length),Chrome 86.0.4240.111,,,2020-11-03 20:21:06,2020-11-03 20:21:06,0.000s,PASSED
strDateStart = GetDateStart[random].toString(),Chrome 86.0.4240.111,,,2020-11-03 20:21:06,2020-11-03 20:21:06,0.001s,PASSED
println(strDateStart),Chrome 86.0.4240.111,,,2020-11-03 20:21:06,2020-11-03 20:21:06,0.001s,PASSED
"GetDateEnd = UI.getOneColumnDatabase(""172.16.94.70"", ""SEA"", ""SELECT REPLACE(CONVERT(VARCHAR(11),GETDATE(),106), ' ','/') AS StartDate"", ""StartDate"")",Chrome 86.0.4240.111,,,2020-11-03 20:21:06,2020-11-03 20:21:06,0.341s,PASSED
random = Random().nextInt(length),Chrome 86.0.4240.111,,,2020-11-03 20:21:06,2020-11-03 20:21:06,0.001s,PASSED
strDateEnd = GetDateEnd[random].toString(),Chrome 86.0.4240.111,,,2020-11-03 20:21:06,2020-11-03 20:21:06,0.001s,PASSED
println(strDateEnd),Chrome 86.0.4240.111,,,2020-11-03 20:21:06,2020-11-03 20:21:06,0.000s,PASSED
"GetOutstanding = UI.getOneColumnDatabase(""172.16.94.70"", ""SEA"", GMA_QueyGetOutstandingData, ""NamaPeserta"")",Chrome 86.0.4240.111,,,2020-11-03 20:21:06,2020-11-03 20:21:07,0.589s,PASSED
random = Random().nextInt(length),Chrome 86.0.4240.111,,,2020-11-03 20:21:07,2020-11-03 20:21:07,0.001s,PASSED
Outstanding = GetOutstanding[random].toString(),Chrome 86.0.4240.111,,,2020-11-03 20:21:07,2020-11-03 20:21:07,0.001s,PASSED
println(Outstanding),Chrome 86.0.4240.111,,,2020-11-03 20:21:07,2020-11-03 20:21:07,0.001s,PASSED
"callTestCase(findTestCase(""Test Cases/Page/GMA/UpDocCLaim/SearchPage""), [""param"":""outstanding"", ""param2"":""twoparam"", ""startdate"":strDateStart, ""enddate"":strDateEnd, ""membername"":Outstanding], STOP_ON_FAILURE)",Chrome 86.0.4240.111,,,2020-11-03 20:21:07,2020-11-03 20:21:54,47.154s,PASSED
delay(5),Chrome 86.0.4240.111,,,2020-11-03 20:21:54,2020-11-03 20:21:59,5.002s,PASSED
"callTestCase(findTestCase(""Test Cases/Scenario/GMA/UpDocClaim/ClosePopUpSearchAction""), ["""":""""], STOP_ON_FAILURE)",Chrome 86.0.4240.111,,,2020-11-03 20:21:59,2020-11-03 20:22:06,6.524s,PASSED
closeBrowser(),Chrome 86.0.4240.111,,,2020-11-03 20:22:06,2020-11-03 20:22:07,1.122s,PASSED
