Suite/Test/Step Name,Browser,Description,Tag,Start time,End time,Duration,Status
Sprint_18,Chrome 86.0.4240.111,,,2020-11-03 20:48:54,2020-11-03 20:51:03,2m - 8.765s,PASSED
,,,,,,,
Test Cases/Scenario/_SCRUM/Sprint_16/S16_017 - Upload Document Outstanding - Excel File - Invalid,Chrome 86.0.4240.111,,,2020-11-03 20:48:55,2020-11-03 20:50:05,1m - 9.706s,PASSED
"GetOutstanding = UI.getOneColumnDatabase(""172.16.94.70"", ""SEA"", GMA_QueyGetOutstandingData, ""NamaPeserta"")",Chrome 86.0.4240.111,,,2020-11-03 20:48:56,2020-11-03 20:49:00,4.529s,PASSED
random = Random().nextInt(length),Chrome 86.0.4240.111,,,2020-11-03 20:49:00,2020-11-03 20:49:00,0.002s,PASSED
Outstanding = GetOutstanding[random].toString(),Chrome 86.0.4240.111,,,2020-11-03 20:49:00,2020-11-03 20:49:00,0.001s,PASSED
println(Outstanding),Chrome 86.0.4240.111,,,2020-11-03 20:49:00,2020-11-03 20:49:00,0.008s,PASSED
"picturename = ""test.xlsx""",Chrome 86.0.4240.111,,,2020-11-03 20:49:00,2020-11-03 20:49:00,0.000s,PASSED
"callTestCase(findTestCase(""Test Cases/Page/GMA/UpDocCLaim/SearchPage""), [""param"":""outstanding"", ""param2"":""membername"", ""membername"":Outstanding], STOP_ON_FAILURE)",Chrome 86.0.4240.111,,,2020-11-03 20:49:00,2020-11-03 20:49:31,30.278s,PASSED
delay(3),Chrome 86.0.4240.111,,,2020-11-03 20:49:31,2020-11-03 20:49:34,3.004s,PASSED
"callTestCase(findTestCase(""Test Cases/Scenario/GMA/UpDocClaim/ClosePopUpSearchAction""), ["""":""""], STOP_ON_FAILURE)",Chrome 86.0.4240.111,,,2020-11-03 20:49:34,2020-11-03 20:49:40,6.541s,PASSED
"callTestCase(findTestCase(""Page/GMA/UpDocCLaim/UploadDocumentPage""), [""param"":""outstanding"", ""membername"":Outstanding, ""picturename"":picturename], STOP_ON_FAILURE)",Chrome 86.0.4240.111,,,2020-11-03 20:49:40,2020-11-03 20:50:04,23.775s,PASSED
closeBrowser(),Chrome 86.0.4240.111,,,2020-11-03 20:50:04,2020-11-03 20:50:05,0.835s,PASSED
,,,,,,,
Test Cases/Scenario/_SCRUM/Sprint_16/S16_020 - Upload Document Outstanding - Blank Data - Invalid,Chrome 86.0.4240.111,,,2020-11-03 20:50:05,2020-11-03 20:51:03,58.394s,PASSED
"GetOutstanding = UI.getOneColumnDatabase(""172.16.94.70"", ""SEA"", GMA_QueyGetOutstandingData, ""NamaPeserta"")",Chrome 86.0.4240.111,,,2020-11-03 20:50:05,2020-11-03 20:50:06,0.563s,PASSED
random = Random().nextInt(length),Chrome 86.0.4240.111,,,2020-11-03 20:50:06,2020-11-03 20:50:06,0.002s,PASSED
Outstanding = GetOutstanding[random].toString(),Chrome 86.0.4240.111,,,2020-11-03 20:50:06,2020-11-03 20:50:06,0.002s,PASSED
println(Outstanding),Chrome 86.0.4240.111,,,2020-11-03 20:50:06,2020-11-03 20:50:06,0.003s,PASSED
"picturename = """"",Chrome 86.0.4240.111,,,2020-11-03 20:50:06,2020-11-03 20:50:06,0.001s,PASSED
"callTestCase(findTestCase(""Test Cases/Page/GMA/UpDocCLaim/SearchPage""), [""param"":""outstanding"", ""param2"":""membername"", ""membername"":Outstanding], STOP_ON_FAILURE)",Chrome 86.0.4240.111,,,2020-11-03 20:50:06,2020-11-03 20:50:34,28.013s,PASSED
delay(3),Chrome 86.0.4240.111,,,2020-11-03 20:50:34,2020-11-03 20:50:37,3.002s,PASSED
"callTestCase(findTestCase(""Test Cases/Scenario/GMA/UpDocClaim/ClosePopUpSearchAction""), ["""":""""], STOP_ON_FAILURE)",Chrome 86.0.4240.111,,,2020-11-03 20:50:37,2020-11-03 20:50:43,6.367s,PASSED
"callTestCase(findTestCase(""Page/GMA/UpDocCLaim/UploadDocumentPage""), [""param"":""outstanding"", ""membername"":Outstanding, ""picturename"":picturename], STOP_ON_FAILURE)",Chrome 86.0.4240.111,,,2020-11-03 20:50:43,2020-11-03 20:51:02,18.604s,PASSED
closeBrowser(),Chrome 86.0.4240.111,,,2020-11-03 20:51:02,2020-11-03 20:51:03,1.519s,PASSED
